[
    {
        "name": "Abhas Sharma Puncture Wale",
        "description": "MG is a British Automotive marque founded by Cecil Kimber in the 1920s, and M.G. Car Company Limited was the British sports car manufacturer that made the marque famous. Best known for its 'midget' open two-seater sports cars, MG also produced saloons and coupés, with engines up to three litres in size. The marque is now owned by Chinese automotive giant SAIC Motor Corporation Limited. ",
        "address": "Sector 41, Gurgaon",
        "pincode": "560102",
        "established_since": "1998",
        "average_response_time": 2,
        "location": {
            "type": "Point",
            "coordinates": [
                77.6446,
                12.9121
            ]
        },
        "overall_rating": 3,
        "tags": [
            "Sanitizers & Safety ",
            "Garages & Staff are very clean here."
        ],
        "reviews": [
            {
                "rating": 4,
                "title": "Lorem ipsum dolor sit amet, consectetur adipiscing elit. Pellentesque sit amet libero nibh, commodo egestas ipsum. In ac nibh sed justo eleifend laoreet eget non felis.",
                "reviewed_by": {
                    "user_id": "5e8b77ff4959b94ffc551c42",
                    "name": "Ravi"
                }
            },
            {
                "rating": 4,
                "title": "Lorem ipsum dolor sit amet, consectetur adipiscing elit. Pellentesque sit amet libero nibh, commodo egestas ipsum. In ac nibh sed justo eleifend laoreet eget non felis.",
                "reviewed_by": {
                    "user_id": "5e8b77ff4959b94ffc551c42",
                    "name": "Ravi"
                }
            }
        ],
        "facilities": [
            {
                "title": "Parking",
                "icon_name": "gt_icon_facility_parking",
                "is_available": true
            },
            {
                "title": "Customer Lounge",
                "icon_name": "gt_icon_facility_customer_lounge",
                "is_available": false
            },
            {
                "title": "Average Mininum Time",
                "icon_name": "gt_icon_facility_average_minimum_time",
                "is_available": true
            },
            {
                "title": "Pick and Drop Facility",
                "icon_name": "gt_icon_facility_pickup_drop",
                "is_available": true
            },
            {
                "title": "Wifi",
                "icon_name": "gt_icon_facility_wifi",
                "is_available": true
            },
            {
                "title": "Washroom",
                "icon_name": "gt_icon_facility_washroom",
                "is_available": false
            }
        ],
        "garage_in_numbers": [
            {
                "title": "Lifts",
                "total": 2,
                "icon_name": "gt_icon_numbers_lifts"
            },
            {
                "title": "PaintBooth",
                "total": 5,
                "icon_name": "gt_icon_numbers_paintbooth"
            },
            {
                "title": "Mechanical Persons",
                "total": 5,
                "icon_name": "gt_icon_numbers_mechanic"
            },
            {
                "title": "Electrical Person",
                "total": 10,
                "icon_name": "gt_icon_numbers_electrician"
            }
        ],
        "faqs": [
            {
                "question": "Lorem Ipsum is simply is laksdjf ladf?",
                "answer": "Lorem Ipsum is simply dummy text of the printing and typesetting industry. Lorem Ipsum has been the industry's standard dummy text ever since the 1500s, "
            },
            {
                "question": "Lorem Ipsum is simply is laksdjf ladf?",
                "answer": "Lorem Ipsum is simply dummy text of the printing and typesetting industry. Lorem Ipsum has been the industry's standard dummy text ever since the 1500s, "
            }
        ]
    },
    {
        "name": "Abhas Sharma Puncture Wale",
        "description": "MG is a British Automotive marque founded by Cecil Kimber in the 1920s, and M.G. Car Company Limited was the British sports car manufacturer that made the marque famous. Best known for its 'midget' open two-seater sports cars, MG also produced saloons and coupés, with engines up to three litres in size. The marque is now owned by Chinese automotive giant SAIC Motor Corporation Limited. ",
        "address": "Sector 41, Gurgaon",
        "pincode": "560102",
        "established_since": "1998",
        "average_response_time": 2,
        "location": {
            "type": "Point",
            "coordinates": [
                77.6446,
                12.9121
            ]
        },
        "overall_rating": 3,
        "tags": [
            "Sanitizers & Safety ",
            "Garages & Staff are very clean here."
        ],
        "reviews": [
            {
                "rating": 4,
                "title": "Lorem ipsum dolor sit amet, consectetur adipiscing elit. Pellentesque sit amet libero nibh, commodo egestas ipsum. In ac nibh sed justo eleifend laoreet eget non felis.",
                "reviewed_by": {
                    "user_id": "5e8b77ff4959b94ffc551c42",
                    "name": "Ravi"
                }
            },
            {
                "rating": 4,
                "title": "Lorem ipsum dolor sit amet, consectetur adipiscing elit. Pellentesque sit amet libero nibh, commodo egestas ipsum. In ac nibh sed justo eleifend laoreet eget non felis.",
                "reviewed_by": {
                    "user_id": "5e8b77ff4959b94ffc551c42",
                    "name": "Ravi"
                }
            }
        ],
        "facilities": [
            {
                "title": "Parking",
                "icon_name": "gt_icon_facility_parking",
                "is_available": true
            },
            {
                "title": "Customer Lounge",
                "icon_name": "gt_icon_facility_customer_lounge",
                "is_available": false
            },
            {
                "title": "Average Mininum Time",
                "icon_name": "gt_icon_facility_average_minimum_time",
                "is_available": true
            },
            {
                "title": "Pick and Drop Facility",
                "icon_name": "gt_icon_facility_pickup_drop",
                "is_available": true
            },
            {
                "title": "Wifi",
                "icon_name": "gt_icon_facility_wifi",
                "is_available": true
            },
            {
                "title": "Washroom",
                "icon_name": "gt_icon_facility_washroom",
                "is_available": false
            }
        ],
        "garage_in_numbers": [
            {
                "title": "Lifts",
                "total": 2,
                "icon_name": "gt_icon_numbers_lifts"
            },
            {
                "title": "PaintBooth",
                "total": 5,
                "icon_name": "gt_icon_numbers_paintbooth"
            },
            {
                "title": "Mechanical Persons",
                "total": 5,
                "icon_name": "gt_icon_numbers_mechanic"
            },
            {
                "title": "Electrical Person",
                "total": 10,
                "icon_name": "gt_icon_numbers_electrician"
            }
        ],
        "faqs": [
            {
                "question": "Lorem Ipsum is simply is laksdjf ladf?",
                "answer": "Lorem Ipsum is simply dummy text of the printing and typesetting industry. Lorem Ipsum has been the industry's standard dummy text ever since the 1500s, "
            },
            {
                "question": "Lorem Ipsum is simply is laksdjf ladf?",
                "answer": "Lorem Ipsum is simply dummy text of the printing and typesetting industry. Lorem Ipsum has been the industry's standard dummy text ever since the 1500s, "
            }
        ]
    }
]